{
  "type": "service_account",
  "project_id": "chat-8e234",
  "private_key_id": "abe2a69c586e91b1fec73a31e13124ad91333689",
  "private_key": "-----BEGIN PRIVATE KEY-----\nMIIEvQIBADANBgkqhkiG9w0BAQEFAASCBKcwggSjAgEAAoIBAQDMvUU0WPXTPUjw\ngEkyRwECLPOc063O4LebpMtQCmWpVkXkZSA0Kx2Xv93CW2Q1cNo6DXqaC+xxmdG7\nSek2HRpIIEbXUfOlv/xSMNQCdS1J2pxCkg+fzMMpCUJV1jb2mJgtQFhGEdZjn7uQ\nTj6U5k91EwVsReS5HnF5zTm6qI+tKcpo+1RM5lCwxZnCvpo3xlRCOYgQ9Jr9U53p\no5ekSorMOq15W+I124ptjyUtO51Ochgs8rF5hXfj7ILzDrJAWIUJ0iAXYnPw5gg4\nhWDz3NpyKg9wE/8ZcIuBKS3G02fbeRyfSyDossGHuU1SI8Cy+Os19nY3hu64Gv9p\nar5Fu5JNAgMBAAECggEAJLV434plxRKzbb+qoBOgCCpUIZXIj5O2B/eTpo2+rY50\n6J8DF6d1Xlx939ewD27lCcyZ413o7nNkad62LEgqiq0S1o9wjpLuJDRyBuDIlnnW\nU49Jst6tTUHGPYqzfyJcAp0LVsDi/ijJIfYNfXgP3g9jhQbBHDnroamcxK1tWWAW\nw4TXof9ZDn8q36RYs+wqM8W+58u54CS7n1E6xLM9EdL58G4qUVQZIWMsnx3q6Pqo\nj6q7Uof90w0AwMGnmdjgs7jDT3XWlj5W8iTmJUJM7kuu7TIWMydZUBmQT8nJqdjK\n237rFDTWSM7JlstGK+2vps846GWK/58D9ZMzNoDRtwKBgQD+1XxzKspCwwln2cD1\nIEbKu4Li/UwGJpQ/g/6+hDnAU19CkZhtjIl5bocYH8bw0/yPomqbq/k2n3jL/hlW\nveIWhOBqA1w3tjJz/x+Rl+GqOIM5c6Lo7VOx0p9ek0xO+rhTAa+aswXBUBCYwZOq\ntj5QDLQgRoj4SxnqH7RsnKSG0wKBgQDNrRplzfBI15sz0hEaez/rIVfIi0Mx8Vij\n+HRGEbgalwIjE/GgWp6PG0gaP6weivXzrdoI2ysaIJs9Q4hirWHSH8e9PbWPPobN\n09rns7oLDkA6emNaRWUHce52y7EoHVHpn9Wozbloibn5JW6Ax39HvdKcXO7xd0Ef\nS/l4ELoOXwKBgF5vAmUzMCy5Vdz0JrsvsMwj3Ib9UpTc6wb2hQpYuYX5300t4wyF\njdRADzPzYqeQBwG7MEJr4jhJtFvz17P7PbMWnorqn9vNWrj9i9dKL0gDFS3PGkmy\n2NcGtCQ59Yc3BeNMtqRfPvy6DMxuv6f9TO4hJwbm3I8WVY4bHaM6EQYdAoGAdmpH\nXH2o7gdUUA2N01VKg7F6vPeRBFwT0LPnHcBt4sE2dcOxxcTmrTXj2Vj3W85dtKJP\nefHVawGC307WYxm3zCaH9ShmM8aoDjD/Q49yeZMG36Q/N2XkuNiblsHHiXT4CC4B\n8WIgcVN6QzuN148EdOWRMH1BBLzIPaCcTMg0lrkCgYEA0nM1aYBImPygMFpeWZU4\nVDHiPXr1pSKBeXvycBjSJU3rFUjLe2WbvDfdV9GK7AQBCxl5v3FAzi/Luf7RVLGC\nNB511i+mjKqP0gBIJHxmS+WmSbpquqPdy2pT4QKSJf77RKlxI5AbCvGgnD1wdtFV\nfpxooe9SKv8d/HERkX865SY=\n-----END PRIVATE KEY-----\n",
  "client_email": "firebase-adminsdk-3vg5v@chat-8e234.iam.gserviceaccount.com",
  "client_id": "113630969347071631927",
  "auth_uri": "https://accounts.google.com/o/oauth2/auth",
  "token_uri": "https://oauth2.googleapis.com/token",
  "auth_provider_x509_cert_url": "https://www.googleapis.com/oauth2/v1/certs",
  "client_x509_cert_url": "https://www.googleapis.com/robot/v1/metadata/x509/firebase-adminsdk-3vg5v%40chat-8e234.iam.gserviceaccount.com"
}
